dump.vcd
$date
	Fri Apr 08 12:36:26 2022
$end
$version
	QuestaSim Version 10.7c
$end
$timescale
	1ns
$end

$scope module uvm_root $end
$upscope $end

$scope module top $end
$upscope $end

$scope begin uvm_pkg $end
$var parameter 32 ! UVM_HDL_MAX_WIDTH $end
$var parameter 32 " UVM_STREAMBITS $end
$var parameter 32 # UVM_RADIX $end
$var parameter 32 $ UVM_MACRO_NUMFLAGS $end
$var parameter 32 % UVM_DEFAULT $end
$var parameter 32 & UVM_ALL_ON $end
$var parameter 32 ' UVM_FLAGS_ON $end
$var parameter 32 ( UVM_FLAGS_OFF $end
$var parameter 32 ) UVM_COPY $end
$var parameter 32 * UVM_NOCOPY $end
$var parameter 32 + UVM_COMPARE $end
$var parameter 32 , UVM_NOCOMPARE $end
$var parameter 32 - UVM_PRINT $end
$var parameter 32 . UVM_NOPRINT $end
$var parameter 32 / UVM_RECORD $end
$var parameter 32 0 UVM_NORECORD $end
$var parameter 32 1 UVM_PACK $end
$var parameter 32 2 UVM_NOPACK $end
$var parameter 32 3 UVM_PHYSICAL $end
$var parameter 32 4 UVM_ABSTRACT $end
$var parameter 32 5 UVM_READONLY $end
$var parameter 32 6 UVM_NODEFPRINT $end
$var parameter 32 7 UVM_MACRO_EXTRAS $end
$var parameter 32 8 UVM_FLAGS $end
$var parameter 32 9 UVM_UNPACK $end
$var parameter 32 : UVM_CHECK_FIELDS $end
$var parameter 32 ; UVM_END_DATA_EXTRA $end
$var parameter 32 < UVM_START_FUNCS $end
$var parameter 32 = UVM_SET $end
$var parameter 32 > UVM_SETINT $end
$var parameter 32 ? UVM_SETOBJ $end
$var parameter 32 @ UVM_SETSTR $end
$var parameter 32 A UVM_END_FUNCS $end
$var parameter 32 B UVM_STR_CRC_POLYNOMIAL $end
$var parameter 32 C UVM_STDOUT $end
$var parameter 32 D UVM_LINE_WIDTH $end
$var parameter 32 E UVM_NUM_LINES $end
$var parameter 32 F UVM_SMALL_STRING $end
$var parameter 32 G UVM_LARGE_STRING $end
$var reg 1 H uvm_start_uvm_declarations $end
$var integer 32 I uvm_global_random_seed $end
$var integer 32 J UVM_UNBOUNDED_CONNECTIONS $end

$scope function uvm_hdl_check_path $end
$var integer 32 K uvm_hdl_check_path $end
$upscope $end

$scope function uvm_hdl_deposit $end
$var integer 32 L uvm_hdl_deposit $end
$var reg 1024 M value [1023:0] $end
$upscope $end

$scope function uvm_hdl_force $end
$var integer 32 N uvm_hdl_force $end
$var reg 1024 O value [1023:0] $end
$upscope $end

$scope task uvm_hdl_force_time $end
$var reg 1024 P value [1023:0] $end
$var time 64 Q force_time $end
$upscope $end

$scope function uvm_hdl_release $end
$var integer 32 R uvm_hdl_release $end
$var reg 1024 S value [1023:0] $end
$upscope $end

$scope function uvm_hdl_read $end
$var integer 32 T uvm_hdl_read $end
$var reg 1024 U value [1023:0] $end
$upscope $end

$scope function uvm_dpi_get_next_arg $end
$upscope $end

$scope function uvm_dpi_get_tool_name $end
$upscope $end

$scope function uvm_dpi_get_tool_version $end
$upscope $end

$scope function uvm_re_match $end
$var integer 32 V uvm_re_match $end
$var integer 32 W e $end
$var integer 32 X es $end
$var integer 32 Y s $end
$var integer 32 Z ss $end
$upscope $end

$scope function uvm_dump_re_cache $end
$upscope $end

$scope function uvm_glob_to_re $end
$upscope $end

$scope function uvm_revision_string $end
$upscope $end

$scope function uvm_radix_to_string $end
$var integer 32 [ radix $end
$upscope $end

$scope function uvm_instance_scope $end
$var reg 8 \ c [7:0] $end
$var integer 32 ] pos $end
$upscope $end

$scope function uvm_oneway_hash $end
$var integer 32 ^ uvm_oneway_hash $end
$var integer 32 _ seed $end
$var reg 1 ` msb $end
$var reg 8 a current_byte [7:0] $end
$var reg 32 b crc1 [31:0] $end
$upscope $end

$scope function uvm_create_random_seed $end
$var integer 32 c uvm_create_random_seed $end
$upscope $end

$scope function uvm_object_value_str $end
$upscope $end

$scope function uvm_leaf_scope $end
$var reg 8 d scope_separator [7:0] $end
$var reg 8 e bracket_match [7:0] $end
$var integer 32 f pos $end
$var integer 32 g bmatches $end
$upscope $end

$scope function uvm_vector_to_string $end
$var reg 4096 h value [4095:0] $end
$var integer 32 i size $end
$var integer 32 j radix $end
$upscope $end

$scope function uvm_get_array_index_int $end
$var integer 32 k uvm_get_array_index_int $end
$var reg 1 l is_wildcard $end
$var integer 32 m i $end
$upscope $end

$scope function uvm_get_array_index_string $end
$var reg 1 n is_wildcard $end
$var integer 32 o i $end
$upscope $end

$scope function uvm_is_array $end
$var reg 1 p uvm_is_array $end
$upscope $end

$scope function uvm_has_wildcard $end
$upscope $end

$scope task run_test $end
$upscope $end

$scope function global_stop_request $end
$upscope $end

$scope function set_global_timeout $end
$var time 64 q timeout $end
$var reg 1 r overridable $end
$upscope $end

$scope function set_global_stop_timeout $end
$var time 64 s timeout $end
$upscope $end

$scope function uvm_report_enabled $end
$var reg 1 t uvm_report_enabled $end
$var integer 32 u verbosity $end
$var reg 2 v severity [1:0] $end
$upscope $end

$scope function uvm_report $end
$var reg 2 w severity [1:0] $end
$var integer 32 x verbosity $end
$var integer 32 y line $end
$upscope $end

$scope function uvm_report_info $end
$var integer 32 z verbosity $end
$var integer 32 { line $end
$upscope $end

$scope function uvm_report_warning $end
$var integer 32 | verbosity $end
$var integer 32 } line $end
$upscope $end

$scope function uvm_report_error $end
$var integer 32 ~ verbosity $end
$var integer 32 !! line $end
$upscope $end

$scope function uvm_report_fatal $end
$var integer 32 "! verbosity $end
$var integer 32 #! line $end
$upscope $end

$scope function uvm_string_to_severity $end
$var reg 1 $! uvm_string_to_severity $end
$var reg 2 %! sev [1:0] $end
$upscope $end

$scope function uvm_string_to_action $end
$upscope $end

$scope function set_config_int $end
$var reg 4096 &! value [4095:0] $end
$upscope $end

$scope function set_config_object $end
$var reg 1 '! clone $end
$upscope $end

$scope function set_config_string $end
$upscope $end

$scope function uvm_is_match $end
$var reg 1 (! uvm_is_match $end
$upscope $end

$scope function uvm_string_to_bits $end
$var reg 115200 )! uvm_string_to_bits [115199:0] $end
$upscope $end

$scope function uvm_bits_to_string $end
$var reg 115200 *! str [115199:0] $end
$upscope $end

$scope task uvm_wait_for_nba_region $end
$var integer 32 +! nba $end
$var integer 32 ,! next_nba $end
$upscope $end

$scope function uvm_split_string $end
$upscope $end

$scope function uvm_hdl_concat2string $end
$upscope $end
$upscope $end

$scope begin testbench_sv_unit $end
$upscope $end

$scope begin std $end
$upscope $end
$enddefinitions $end
#0
$dumpvars
0n
0p
0$!
b0 %!
0(!
bx )!
bx *!
bx M
bx O
bx P
bx S
bx U
1H
1`
b1110100 a
b100000100100101100000001110001 b
b1 h
0l
0r
0t
b0 v
b0 w
bx &!
0'!
b10000000000 !
b1000000000000 "
b1111000000000000000000000000 #
b10001 $
b10101010101 %
b101010101 &
b101010101 '
b0 (
b1 )
b10 *
b100 +
b1000 ,
b10000 -
b100000 .
b1000000 /
b10000000 0
b100000000 1
b1000000000 2
b10000000000000 3
b100000000000000 4
b1000000000000000 5
b10000000000000000 6
b100000000000000000 7
b100000000000000001 8
b100000000000000010 9
b100000000000000011 :
b100000000000000100 ;
b100000000000000101 <
b100000000000000110 =
b100000000000000110 >
b100000000000000111 ?
b100000000000001000 @
b100000000000001000 A
b100110000010001110110110110 B
b1 C
b1111000 D
b1111000 E
b1110111111 F
b11100000111111111 G
b0 V
b1 W
b0 X
b0 Y
b0 Z
b0 [
b101110 d
b0 e
b110011 f
b11111111111111111111111111111111 g
b0 o
b0 K
b0 L
b0 N
b0 R
b0 T
b1101001011000001111100000011110 I
b101110 \
b111 ]
b11110111101000000110010111111101 ^
b1101001011000001111100000011110 _
b11110010010101011010110010101 c
b100000 i
b10000000000000000000000000 j
b0 k
b0 m
b111110100 u
b0 x
b0 y
b0 z
b0 {
b0 |
b0 }
b0 ~
b0 !!
b0 "!
b0 #!
b100011 +!
b100011 ,!
b11111111111111111111111111111111 J
bx Q
bx q
bx s
$end
#5
b100100 ,!
b100100 +!
#45
b100101 ,!
b11110111101000000110010111111110 c
b100101 +!
#85
b100110 ,!
b11110111101000000110011000000000 c
b100110 +!
#125
b100111 ,!
b11110111101000000110011000000011 c
b100111 +!
#165
b101000 ,!
b11110111101000000110011000000111 c
b101000 +!
#205
b101001 ,!
b11110111101000000110011000001100 c
b101001 +!
#245
b101010 ,!
b11110111101000000110011000010010 c
b101010 +!
#285
b101011 ,!
b11110111101000000110011000011001 c
b101011 +!
#325
b101100 ,!
b101100 +!
#425
b101101 ,!
b101110 ,!
b101101 +!
b101110 +!
b101111 ,!
b110000 ,!
b101111 +!
b110000 +!
b11110010010101011010110100110 c
b11001111011111101100000100111101 c
b1101010100101100010011010110001 c
b110010110011111110010110000000 c
b11010000111100101000111011010111 c
b1000011010101111000100011101010 c
b11100111001011100011110101110000 c
b10000100110110010111001101101 c
b1010101011011011101010000101101 c
b11101111100000010000001010110000 c
b1110110011111111101110100111000 c
b10111011011111101000110001001110 c
b1111111011000111001110011100010 c
b100011110000111110101111110101 c
b1010100101100101010110100100001 c
b101110000011110100111101110010 c
b11111010111001011101100111001101 c
b1100011100100010100110001010111 c
b100100000101001000001000111001 c
b1001011000010111100010011000100 c
b1101100111110011110110001101001 c
b10010011010011101011101001110100 c
b11100001100110110011111100000111 c
b10000100101010101001111001110001 c
b11011111001001010010101010000001 c
b1001111011110111010111010110010 c
b1110100011010011000110100000110 c
b1100101101010101110010101110010 c
b11010100010011110111100110110 c
b111010011100010111100001010010 c
b1101101100101101100100111000100 c
b10010101101001000110100010010001 c
b11100100010110100110110100111111 c
b1111011100100011010000001101011 c
b10010010000110010111010011011001 c
b10101101000111000000110011110010 c
b11011010010111111110100011010000 c
b101000010010001111110100110001 c
b1110111100100110100111001010011 c
b100111000011110100101110000100 c
b10000011111011101001100011111110 c
b11110011010000111100011011010001 c
b1101010011100000000100110010101 c
b11011110000100101101011100010010 c
b11101001001001001010111000010010 c
b10111101001110000001001001111001 c
b11101100011111100010001011010001 c
b111110000111101011100011011011 c
b10100010000010011100111101101000 c
b111000011000110011100110011101 c
b11011100000111001000010000101100 c
b11110010010101011010110111000 c
b11001111011111101100000101001111 c
b1101010100101100010011011000011 c
b110010110011111110010110010010 c
b11010000111100101000111011101001 c
b1000011010101111000100011111100 c
b11100111001011100011110110000010 c
b10000100110110010111001111111 c
b1010101011011011101010000111111 c
b11101111100000010000001011000010 c
b1110110011111111101110101001010 c
b10111011011111101000110001100000 c
b1111111011000111001110011110100 c
b100011110000111110110000000111 c
b1010100101100101010110100110011 c
b101110000011110100111110000100 c
b11111010111001011101100111011111 c
b1100011100100010100110001101001 c
b100100000101001000001001001011 c
b1001011000010111100010011010110 c
b1101100111110011110110001111011 c
b10010011010011101011101010000110 c
b11100001100110110011111100011001 c
b10000100101010101001111010000011 c
b11011111001001010010101010010011 c
b1001111011110111010111011000100 c
b1110100011010011000110100011000 c
b1100101101010101110010110000100 c
b11010100010011110111101001000 c
b111010011100010111100001100100 c
b1101101100101101100100111010110 c
b10010101101001000110100010100011 c
b11100100010110100110110101010001 c
b1111011100100011010000001111101 c
b10010010000110010111010011101011 c
b10101101000111000000110100000100 c
b11011010010111111110100011100010 c
b101000010010001111110101000011 c
b1110111100100110100111001100101 c
b100111000011110100101110010110 c
b10000011111011101001100100010000 c
b11110011010000111100011011100011 c
b1101010011100000000100110100111 c
b11011110000100101101011100100100 c
b11101001001001001010111000100100 c
b10111101001110000001001010001011 c
b11101100011111100010001011100011 c
b111110000111101011100011101101 c
b10100010000010011100111101111010 c
b111000011000110011100110101111 c
b11011100000111001000010000111110 c
b11110010010101011010111001011 c
b11001111011111101100000101100010 c
b1101010100101100010011011010110 c
b110010110011111110010110100101 c
b11010000111100101000111011111100 c
b1000011010101111000100100001111 c
b11100111001011100011110110010101 c
b10000100110110010111010010010 c
b1010101011011011101010001010010 c
b11101111100000010000001011010101 c
b1110110011111111101110101011101 c
b10111011011111101000110001110011 c
b1111111011000111001110100000111 c
b100011110000111110110000011010 c
b1010100101100101010110101000110 c
b101110000011110100111110010111 c
b11111010111001011101100111110010 c
b1100011100100010100110001111100 c
b100100000101001000001001011110 c
b1001011000010111100010011101001 c
b1101100111110011110110010001110 c
b10010011010011101011101010011001 c
b11100001100110110011111100101100 c
b10000100101010101001111010010110 c
b11011111001001010010101010100110 c
b1001111011110111010111011010111 c
b1110100011010011000110100101011 c
b1100101101010101110010110010111 c
b11010100010011110111101011011 c
b111010011100010111100001110111 c
b1101101100101101100100111101001 c
b10010101101001000110100010110110 c
b11100100010110100110110101100100 c
b1111011100100011010000010010000 c
b10010010000110010111010011111110 c
b10101101000111000000110100010111 c
b11011010010111111110100011110101 c
b101000010010001111110101010110 c
b1110111100100110100111001111000 c
b100111000011110100101110101001 c
b10000011111011101001100100100011 c
b11110011010000111100011011110110 c
b1101010011100000000100110111010 c
b11011110000100101101011100110111 c
b11101001001001001010111000110111 c
b10111101001110000001001010011110 c
b11101100011111100010001011110110 c
b111110000111101011100100000000 c
b10100010000010011100111110001101 c
b111000011000110011100111000010 c
b11011100000111001000010001010001 c
b11011100000111001000010001100101 c
b111000011000110011100111010110 c
b10100010000010011100111110100001 c
b1001011000010111100010011111101 c
b1101010100101100010011011101010 c
b11110010010101011010111011111 c
b11001111011111101100000101110110 c
b11010000111100101000111100010000 c
b110010110011111110010110111001 c
b100100000101001000001001110010 c
b11101111100000010000001011101001 c
b1000011010101111000100100100011 c
b11100111001011100011110110101001 c
b10000100110110010111010100110 c
b1010101011011011101010001100110 c
b1110110011111111101110101110001 c
b10111011011111101000110010000111 c
b1100011100100010100110010010000 c
b1111111011000111001110100011011 c
b100011110000111110110000101110 c
b1010100101100101010110101011010 c
b101110000011110100111110101011 c
b11111010111001011101101000000110 c
b11100001100110110011111101000000 c
b10010011010011101011101010101101 c
b1101100111110011110110010100010 c
b111110000111101011100100010100 c
b11010100010011110111101101111 c
b10000100101010101001111010101010 c
b11011111001001010010101010111010 c
b1001111011110111010111011101011 c
b1110100011010011000110100111111 c
b1100101101010101110010110101011 c
b10010010000110010111010100010010 c
b111010011100010111100010001011 c
b1101101100101101100100111111101 c
b10010101101001000110100011001010 c
b11100100010110100110110101111000 c
b1111011100100011010000010100100 c
b10000011111011101001100100110111 c
b10101101000111000000110100101011 c
b11011010010111111110100100001001 c
b101000010010001111110101101010 c
b1110111100100110100111010001100 c
b100111000011110100101110111101 c
b11101100011111100010001100001010 c
b11110011010000111100011100001010 c
b1101010011100000000100111001110 c
b11011110000100101101011101001011 c
b11101001001001001010111001001011 c
b10111101001110000001001010110010 c
